00000000000000000000000000000000
00000000000000000000000000000000
00000000000000000000000000000000
00000000000000000000000000000000
00000000000000000000000000000000
00000010000000010000000010000000
00000050000000050000000050000000
00000000000000000000000000000000
00000000000000000000000000000000
00000000000000000000000000000000
00000000000000000000000000000000
00000000000000000000000000000000
00000000000000000000000000000000
04000000000000000000000000000090
11110111100111100011110000111111
11110111100111100011110000111111
11110111100111100011110000111111
11110111100111100011110000111111