00000000000000000000000000000000
00000000000000000000000000000000
00000000000000000000000000000000
00000000100000001000000010000000
00000000700000007000000070000000
00000000000000000000000000000000
00000000000000000000000000000000
00000000000000000000000000000000
00000000000000000000000000000000
00000000300000003000000030000000
00011001110000011100001111100000
00000000c0000000c0000000s0000000
00004000000000000000000000000090
11111111111111111111111111111111
00000000000000000000000000000000
00000000000000000000000000000000
00000000000000000000000000000000
00000000000000000000000000000000